{
	"metaDataVersion": "1.0.0",
	"category": "com.microchip.ide.project",
	"content": {
		"metaDataVersion": "1.1.0",
		"name": "com.microchip.mcu32.mplabx.project.usb_apps_device_cdc_com_port_single_sam_9x60_ek_freertos",
		"version": "3.1.1",
		"displayName": "CDC COM Port Single Example (cdc_com_port_single) Example for SAM 9x60 Family",
		"projectName": "cdc_com_port_single_sam_9x60_ek_freertos",
		"shortDescription": "This application creates a USB CDC Device that enumerates as a single COM port on the USB host PC. The COM port can be opened using any of the terminal applications. To demonstrate two-way communication, when a character is typed on the terminal window, it is echoed back by the USB device.",
		"ide": {
			"name": "MPLABX",
			"semverRange": ">=5.50.0"
		},
		"compiler": [
			{
				"name": "XC32",
				"semverRange": ">=3.0.0"
			}
		],
		"dfp": {
			"name": "SAM9X6_DFP",
			"semverRange": "^1.5.50"
		},
		"configurator": {
			"name": "MHC",
			"semverRange": ">=3.6.4"
		},
		"device": {
			"metaDataVersion": "1.0.0",
			"category": "com.microchip.portal.contentRef",
			"content": {
				"metaDataVersion": "1.0.0",
				"category": "com.microchip.device",
				"name": "SAM9X60",
				"versionRange": "*"
			}
		},
		"author": "Microchip",
		"subcategories": [
			[
				"Development Kit", "SAM9X60-EK Evaluation Kit"
			],
			[
				"Harmony", "Middleware", "USB", "CDC_COM_PORT_SINGLE"
			],
			[
				"Middleware", "USB", "CDC_COM_PORT_SINGLE"
			]
		],
		"peripherals": [
			"USB"
		],
		"keywords": [
			"MHC",
			"Harmony",
			"Middleware",
			"USB",
			"SAM9X60",
			"SAM 9x60 Family",
			"USB"
		],
		"additionalData": {
			"longDescription": {
				"metaDataVersion": "1.0.0",
				"category": "com.microchip.portal.fileRef",
				"content": {
					"metaDataVersion": "1.0.0",
					"fileName": "./../../readme.md",
					"mimeType": "text/markdown"
				}
			}
		}
	}
}
